…
    ## 
    ## -- Column specification --------------------------------------------------------
    ## cols(
    ##   .default = col_double(),
    ##   Geography = col_character()
    ## )
    ## i Use `spec()` for the full column specifications.

``` r
as_tibble(Data_FL)
```

    ## # A tibble: 4,245 x 26
    ##    OBJECTID Geography TotalPopul Unemployme Median_Hou PercentFam PercentF_1
    ##       <dbl> <chr>          <dbl>      <dbl>      <dbl>      <dbl>      <dbl>
    ##  1        1 Census T~       5959        4        61375        7.5       13.3
    ##  2        2 Census T~       3383       11.8      52429        9.1       19.1
    ##  3        3 Census T~       5091       15.2      52917       12.5       12.8
    ##  4        4 Census T~       3407       13.6      27278       28         32.1
    ##  5        5 Census T~       4734        5.5      66402        5.5       11.5
    ##  6        6 Census T~       4425        5.2      48262        6.7       15.1
    ##  7        7 Census T~       5283       14.7      29024       33.6       45.5
    ##  8        8 Census T~       4728        6.4      52500        4.3        0  
    ##  9        9 Census T~       3020        6.4      57009        5.2       13.2
    ## 10       10 Census T~       5046        7        40704       10.9       20.6
    ## # ... with 4,235 more rows, and 19 more variables: PercentPop <dbl>,
    ## #   PercentP_1 <dbl>, TotalPop_M <dbl>, PercentTot <dbl>, TotalPop_F <dbl>,
    ## #   PercentT_1 <dbl>, Median_Age <dbl>, Pop_Under5 <dbl>, PercentP_2 <dbl>,
    ## #   Pop_5to9_Y <dbl>, PercentP_3 <dbl>, Pop_10to14 <dbl>, PercentP_4 <dbl>,
    ## #   Pop_15to19 <dbl>, PercentP_5 <dbl>, Pop_18andO <dbl>, PercentP_6 <dbl>,
    ## #   Pop_65andO <dbl>, PercentP_7 <dbl>
…
